R for Data Science - Wrangle Exercises
…
Exercise 13.2.1.3

You could join weather and flights on flights dest. That way you could know the forecast of the destination airport at the moment of departure (if you join on year, month, day, hour). With some calculation, we can get the hour of estimated arrival, and get the weather forecast for the destination on arrival.

Exercise 13.2.1.4

Well, if we just want to flag a date as special, I would have a table called special with the columns year, month, day, special, where special column would hold the value True. Than I would connect it to flight via the concatenation of year, month and day. Now I can check if a specific flight is scheduled on a special date

Exercise 13.3.1.1

flights %>%
  mutate(key = row_number())

## # A tibble: 336,776 x 20
##     year month   day dep_time sched_dep_time dep_delay arr_time
##    <int> <int> <int>    <int>          <int>     <dbl>    <int>
##  1  2013     1     1      517            515         2      830
##  2  2013     1     1      533            529         4      850
##  3  2013     1     1      542            540         2      923
##  4  2013     1     1      544            545        -1     1004
##  5  2013     1     1      554            600        -6      812
##  6  2013     1     1      554            558        -4      740
##  7  2013     1     1      555            600        -5      913
##  8  2013     1     1      557            600        -3      709
##  9  2013     1     1      557            600        -3      838
## 10  2013     1     1      558            600        -2      753
## # ... with 336,766 more rows, and 13 more variables: sched_arr_time <int>,
## #   arr_delay <dbl>, carrier <chr>, flight <int>, tailnum <chr>,
## #   origin <chr>, dest <chr>, air_time <dbl>, distance <dbl>, hour <dbl>,
## #   minute <dbl>, time_hour <dttm>, key <int>
…
as_tibble(nasaweather::atmos) %>% count(lat,long,year,month) %>% filter(n > 1)

## # A tibble: 0 x 5
## # ... with 5 variables: lat <dbl>, long <dbl>, year <int>, month <int>,
## #   n <int>

as_tibble(fueleconomy::vehicles) %>% count(id) %>% filter(n > 1) #at last a decent table with id on it

## # A tibble: 0 x 2
## # ... with 2 variables: id <int>, n <int>

as_tibble(ggplot2::diamonds) %>% count(carat, cut, color, clarity, depth, table, x, y, z, price) %>% filter(n > 1) #no key for this horrendous table

## # A tibble: 143 x 11
##    carat       cut color clarity depth table     x     y     z price     n
##    <dbl>     <ord> <ord>   <ord> <dbl> <dbl> <dbl> <dbl> <dbl> <int> <int>
##  1  0.30      Good     J     VS1  63.4    57  4.23  4.26  2.69   394     2
##  2  0.30 Very Good     G     VS2  63.0    55  4.29  4.31  2.71   526     2
##  3  0.30 Very Good     J     VS1  63.4    57  4.26  4.23  2.69   506     2
##  4  0.30   Premium     D     SI1  62.2    58  4.31  4.28  2.67   709     2
##  5  0.30     Ideal     G     VS2  63.0    55  4.31  4.29  2.71   675     2
##  6  0.30     Ideal     G      IF  62.1    55  4.32  4.35  2.69   863     2
##  7  0.30     Ideal     H     SI1  62.2    57  4.26  4.29  2.66   450     2
##  8  0.30     Ideal     H     SI1  62.2    57  4.27  4.28  2.66   450     2
##  9  0.31      Good     D     SI1  63.5    56  4.29  4.31  2.73   571     2
## 10  0.31 Very Good     D     SI1  63.5    56  4.31  4.29  2.73   732     2
## # ... with 133 more rows
…
Exercise 13.4.6.2

flights %>%
  inner_join(airports %>% select(faa,lat,lon), by = c("origin" = "faa")) %>%
  inner_join(airports %>% select(faa,lat,lon), by = c("dest" = "faa"), suffix = c('.origin','.dest'))

## # A tibble: 329,174 x 23
##     year month   day dep_time sched_dep_time dep_delay arr_time
##    <int> <int> <int>    <int>          <int>     <dbl>    <int>
##  1  2013     1     1      517            515         2      830
##  2  2013     1     1      533            529         4      850
##  3  2013     1     1      542            540         2      923
##  4  2013     1     1      554            600        -6      812
##  5  2013     1     1      554            558        -4      740
##  6  2013     1     1      555            600        -5      913
##  7  2013     1     1      557            600        -3      709
##  8  2013     1     1      557            600        -3      838
##  9  2013     1     1      558            600        -2      753
## 10  2013     1     1      558            600        -2      849
## # ... with 329,164 more rows, and 16 more variables: sched_arr_time <int>,
## #   arr_delay <dbl>, carrier <chr>, flight <int>, tailnum <chr>,
## #   origin <chr>, dest <chr>, air_time <dbl>, distance <dbl>, hour <dbl>,
## #   minute <dbl>, time_hour <dttm>, lat.origin <dbl>, lon.origin <dbl>,
## #   lat.dest <dbl>, lon.dest <dbl>
…
Exercise 13.5.1.2

How do I know it is right? I have faith

flights %>%
  semi_join(flights %>%
              count(tailnum) %>%
              filter(n > 100),
            by = c("tailnum"))

## # A tibble: 229,202 x 19
##     year month   day dep_time sched_dep_time dep_delay arr_time
##    <int> <int> <int>    <int>          <int>     <dbl>    <int>
##  1  2013     1     1      517            515         2      830
##  2  2013     1     1      533            529         4      850
##  3  2013     1     1      544            545        -1     1004
##  4  2013     1     1      554            558        -4      740
##  5  2013     1     1      555            600        -5      913
##  6  2013     1     1      557            600        -3      709
##  7  2013     1     1      557            600        -3      838
##  8  2013     1     1      558            600        -2      849
##  9  2013     1     1      558            600        -2      853
## 10  2013     1     1      558            600        -2      923
## # ... with 229,192 more rows, and 12 more variables: sched_arr_time <int>,
## #   arr_delay <dbl>, carrier <chr>, flight <int>, tailnum <chr>,
## #   origin <chr>, dest <chr>, air_time <dbl>, distance <dbl>, hour <dbl>,
## #   minute <dbl>, time_hour <dttm>

Exercise 13.5.1.3

Why didnt I include year? Because I am lazy

fueleconomy::vehicles %>%
  semi_join(fueleconomy::common, by = c("make","model"))

## # A tibble: 14,531 x 12
##       id  make   model  year           class           trans
##    <int> <chr>   <chr> <int>           <chr>           <chr>
##  1  1833 Acura Integra  1986 Subcompact Cars Automatic 4-spd
##  2  1834 Acura Integra  1986 Subcompact Cars    Manual 5-spd
##  3  3037 Acura Integra  1987 Subcompact Cars Automatic 4-spd
##  4  3038 Acura Integra  1987 Subcompact Cars    Manual 5-spd
##  5  4183 Acura Integra  1988 Subcompact Cars Automatic 4-spd
##  6  4184 Acura Integra  1988 Subcompact Cars    Manual 5-spd
##  7  5303 Acura Integra  1989 Subcompact Cars Automatic 4-spd
##  8  5304 Acura Integra  1989 Subcompact Cars    Manual 5-spd
##  9  6442 Acura Integra  1990 Subcompact Cars Automatic 4-spd
## 10  6443 Acura Integra  1990 Subcompact Cars    Manual 5-spd
## # ... with 14,521 more rows, and 6 more variables: drive <chr>, cyl <int>,
## #   displ <dbl>, fuel <chr>, hwy <int>, cty <int>

Exercise 13.5.1.4

Too tired to do this

flights %>%
  group_by(year,month,day,hour,origin) %>%
  summarize(delays = sum(dep_delay + arr_delay)) %>%
  arrange(desc(delays)) %>%
  ungroup() %>%
  top_n(48,delays) %>%
  select(year,month,day,hour,origin,delays) %>%
  inner_join(weather, by = c("year","month","day","hour","origin"))

## # A tibble: 48 x 16
##     year month   day  hour origin delays  temp  dewp humid wind_dir
##    <dbl> <dbl> <int> <dbl>  <chr>  <dbl> <dbl> <dbl> <dbl>    <dbl>
##  1  2013     7    22    17    JFK   7291 84.02 71.96 67.15      140
##  2  2013     6    25    17    EWR   5989 93.02 66.02 41.20      230
##  3  2013     5    19    17    JFK   4968 57.20 55.40 93.69      120
##  4  2013     8    22    13    EWR   4553    NA    NA    NA      240
##  5  2013     7    23    20    JFK   4236 84.02 73.04 69.64      190
##  6  2013     4    18    17    EWR   4107 53.96 42.98 66.28      120
##  7  2013     7    23    17    LGA   4013 87.08 69.08 55.19      220
##  8  2013     6    30    18    EWR   3886 77.00 71.06 81.92      120
##  9  2013    12    29    17    JFK   3830 42.98 39.92 88.85       90
## 10  2013     5    19    20    EWR   3819 57.92 57.02 96.81       NA
## # ... with 38 more rows, and 6 more variables: wind_speed <dbl>,
## #   wind_gust <dbl>, precip <dbl>, pressure <dbl>, visib <dbl>,
## #   time_hour <dttm>
…
Yes, we have a case of plane promiscuity. It is probably one airline buying an old plane from other airline

planes %>%
  select(tailnum) %>%
  inner_join(flights %>%
               count(tailnum,carrier),
             by = c("tailnum")) %>%
  count(tailnum) %>%
  filter(nn > 1) %>%
  inner_join(flights %>%
               count(tailnum,carrier),
             by = c("tailnum"))

## # A tibble: 34 x 4
##    tailnum    nn carrier     n
##      <chr> <int>   <chr> <int>
##  1  N146PQ     2      9E     8
##  2  N146PQ     2      EV    36
##  3  N153PQ     2      9E     5
##  4  N153PQ     2      EV    26
##  5  N176PQ     2      9E     7
##  6  N176PQ     2      EV    21
##  7  N181PQ     2      9E     4
##  8  N181PQ     2      EV    35
##  9  N197PQ     2      9E     2
## 10  N197PQ     2      EV    31
## # ... with 24 more rows
