R for Data Science - Wrangle Exercises
…
First quarter seems to have less flights than other quarters, specially at 7am, and noon-1pm. All the other times seem the same across quarters. Will not dive into months, because I am lazy

Exercise 16.3.4.2

Compare dep_time, sched_dep_time and dep_delay. Are they consistent? Explain your findings.

No, apparently it messes up when the dep_time is actually in the next day (says it departed on the previous day). 1,205 rows are off by 1440 minutes, which is 1 day

flights_dt %>% 
  select(dep_time, sched_dep_time, dep_delay) %>%
  mutate(diff = dep_time - sched_dep_time, wrong = dep_delay - diff/60) %>%
  filter(wrong != 0)

## # A tibble: 1,205 x 5
##               dep_time      sched_dep_time dep_delay        diff     wrong
##                 <dttm>              <dttm>     <dbl>      <time>    <time>
##  1 2013-01-01 08:48:00 2013-01-01 18:35:00       853 -35220 secs 1440 secs
##  2 2013-01-02 00:42:00 2013-01-02 23:59:00        43 -83820 secs 1440 secs
##  3 2013-01-02 01:26:00 2013-01-02 22:50:00       156 -77040 secs 1440 secs
##  4 2013-01-03 00:32:00 2013-01-03 23:59:00        33 -84420 secs 1440 secs
##  5 2013-01-03 00:50:00 2013-01-03 21:45:00       185 -75300 secs 1440 secs
##  6 2013-01-03 02:35:00 2013-01-03 23:59:00       156 -77040 secs 1440 secs
##  7 2013-01-04 00:25:00 2013-01-04 23:59:00        26 -84840 secs 1440 secs
##  8 2013-01-04 01:06:00 2013-01-04 22:45:00       141 -77940 secs 1440 secs
##  9 2013-01-05 00:14:00 2013-01-05 23:59:00        15 -85500 secs 1440 secs
## 10 2013-01-05 00:37:00 2013-01-05 22:30:00       127 -78780 secs 1440 secs
## # ... with 1,195 more rows

Exercise 16.3.4.3

Compare air_time with the duration between the departure and arrival. Explain your findings. (Hint: consider the location of the airport.)

Air time seems to be smaller than the dep_time to arr_time difference (when timezones are considered, which I didnt, but have a feeling). This may be due dep_time is set when the plane leaves the terminal, and arr_time when it reaches the terminal, i.e., includes taxing time.

flights_dt %>%
  mutate(air_time2 = arr_time - dep_time, diff = air_time - air_time2) %>%
  select(origin,dest,dep_time,arr_time,air_time,air_time2,diff)

## # A tibble: 328,063 x 7
##    origin  dest            dep_time            arr_time air_time air_time2
##     <chr> <chr>              <dttm>              <dttm>    <dbl>    <time>
##  1    EWR   IAH 2013-01-01 05:17:00 2013-01-01 08:30:00      227  193 mins
##  2    LGA   IAH 2013-01-01 05:33:00 2013-01-01 08:50:00      227  197 mins
##  3    JFK   MIA 2013-01-01 05:42:00 2013-01-01 09:23:00      160  221 mins
##  4    JFK   BQN 2013-01-01 05:44:00 2013-01-01 10:04:00      183  260 mins
##  5    LGA   ATL 2013-01-01 05:54:00 2013-01-01 08:12:00      116  138 mins
##  6    EWR   ORD 2013-01-01 05:54:00 2013-01-01 07:40:00      150  106 mins
##  7    EWR   FLL 2013-01-01 05:55:00 2013-01-01 09:13:00      158  198 mins
##  8    LGA   IAD 2013-01-01 05:57:00 2013-01-01 07:09:00       53   72 mins
##  9    JFK   MCO 2013-01-01 05:57:00 2013-01-01 08:38:00      140  161 mins
## 10    LGA   ORD 2013-01-01 05:58:00 2013-01-01 07:53:00      138  115 mins
## # ... with 328,053 more rows, and 1 more variables: diff <time>
…
